[
    {
        "key": "group_5b1502301adb4",
        "title": "New About Page",
        "fields": [
            {
                "key": "field_5955918846b11",
                "label": "About Description",
                "name": "about_description",
                "type": "wysiwyg",
                "instructions": "",
                "required": 0,
                "conditional_logic": 0,
                "wrapper": {
                    "width": "",
                    "class": "",
                    "id": ""
                },
                "default_value": "",
                "toolbar": "full",
                "media_upload": 1,
                "tabs": "all",
                "delay": 0
            },
            {
                "key": "field_5955919f46b12",
                "label": "About Image",
                "name": "about_image",
                "type": "image",
                "instructions": "",
                "required": 0,
                "conditional_logic": 0,
                "wrapper": {
                    "width": "",
                    "class": "",
                    "id": ""
                },
                "preview_size": "medium",
                "library": "all",
                "return_format": "array",
                "min_width": 0,
                "min_height": 0,
                "min_size": 0,
                "max_width": 0,
                "max_height": 0,
                "max_size": 0,
                "mime_types": ""
            },
            {
                "key": "field_595591a846b13",
                "label": "Large Image",
                "name": "large_image",
                "type": "image",
                "instructions": "",
                "required": 0,
                "conditional_logic": 0,
                "wrapper": {
                    "width": "",
                    "class": "",
                    "id": ""
                },
                "preview_size": "large",
                "library": "all",
                "return_format": "array",
                "min_width": 0,
                "min_height": 0,
                "min_size": 0,
                "max_width": 0,
                "max_height": 0,
                "max_size": 0,
                "mime_types": ""
            },
            {
                "key": "field_595591ff46b14",
                "label": "Support Team",
                "name": "support_team",
                "type": "repeater",
                "instructions": "",
                "required": 0,
                "conditional_logic": 0,
                "wrapper": {
                    "width": "",
                    "class": "",
                    "id": ""
                },
                "row_min": "",
                "row_limit": "",
                "layout": "table",
                "button_label": "Add Team",
                "min": 0,
                "max": 0,
                "collapsed": "",
                "sub_fields": [
                    {
                        "key": "field_5955921346b15",
                        "label": "Name",
                        "name": "name",
                        "type": "text",
                        "instructions": "",
                        "required": 0,
                        "conditional_logic": 0,
                        "wrapper": {
                            "width": "",
                            "class": "",
                            "id": ""
                        },
                        "default_value": "",
                        "placeholder": "",
                        "prepend": "",
                        "append": "",
                        "formatting": "html",
                        "maxlength": ""
                    },
                    {
                        "key": "field_5955921a46b16",
                        "label": "Title",
                        "name": "title",
                        "type": "text",
                        "instructions": "",
                        "required": 0,
                        "conditional_logic": 0,
                        "wrapper": {
                            "width": "",
                            "class": "",
                            "id": ""
                        },
                        "default_value": "",
                        "placeholder": "",
                        "prepend": "",
                        "append": "",
                        "formatting": "html",
                        "maxlength": ""
                    },
                    {
                        "key": "field_5955921f46b17",
                        "label": "Photo",
                        "name": "photo",
                        "type": "image",
                        "instructions": "",
                        "required": 0,
                        "conditional_logic": 0,
                        "wrapper": {
                            "width": "",
                            "class": "",
                            "id": ""
                        },
                        "preview_size": "thumbnail",
                        "library": "all",
                        "return_format": "array",
                        "min_width": 0,
                        "min_height": 0,
                        "min_size": 0,
                        "max_width": 0,
                        "max_height": 0,
                        "max_size": 0,
                        "mime_types": ""
                    }
                ]
            }
        ],
        "location": [
            [
                {
                    "param": "page_template",
                    "operator": "==",
                    "value": "template-new-about.php"
                }
            ]
        ],
        "menu_order": 0,
        "position": "normal",
        "style": "default",
        "label_placement": "top",
        "instruction_placement": "label",
        "hide_on_screen": [
            "the_content"
        ],
        "active": 1,
        "description": "",
        "old_ID": 3967
    },
    {
        "key": "group_5b1502302c130",
        "title": "Project",
        "fields": [
            {
                "key": "field_53f307a8e9100",
                "label": "Type of Work",
                "name": "client_name",
                "type": "text",
                "instructions": "",
                "required": 0,
                "conditional_logic": 0,
                "wrapper": {
                    "width": "",
                    "class": "",
                    "id": ""
                },
                "default_value": "",
                "placeholder": "",
                "prepend": "",
                "append": "",
                "formatting": "html",
                "maxlength": ""
            },
            {
                "key": "field_53f307c907e10",
                "label": "Project Gallery",
                "name": "project_gallery",
                "type": "gallery",
                "instructions": "",
                "required": 0,
                "conditional_logic": 0,
                "wrapper": {
                    "width": "",
                    "class": "",
                    "id": ""
                },
                "preview_size": "thumbnail",
                "library": "all",
                "min": 0,
                "max": 0,
                "min_width": 0,
                "min_height": 0,
                "min_size": 0,
                "max_width": 0,
                "max_height": 0,
                "max_size": 0,
                "mime_types": "",
                "insert": "append"
            }
        ],
        "location": [
            [
                {
                    "param": "post_type",
                    "operator": "==",
                    "value": "projects"
                }
            ]
        ],
        "menu_order": 0,
        "position": "normal",
        "style": "seamless",
        "label_placement": "top",
        "instruction_placement": "label",
        "hide_on_screen": "",
        "active": 1,
        "description": ""
    },
    {
        "key": "group_5b15023037b00",
        "title": "Quotation",
        "fields": [
            {
                "key": "field_56946baab0a3d",
                "label": "Header Image",
                "name": "header_image",
                "type": "image",
                "instructions": "",
                "required": 0,
                "conditional_logic": 0,
                "wrapper": {
                    "width": "",
                    "class": "",
                    "id": ""
                },
                "preview_size": "thumbnail",
                "library": "all",
                "return_format": "array",
                "min_width": 0,
                "min_height": 0,
                "min_size": 0,
                "max_width": 0,
                "max_height": 0,
                "max_size": 0,
                "mime_types": ""
            }
        ],
        "location": [
            [
                {
                    "param": "page_template",
                    "operator": "==",
                    "value": "template-quotation.php"
                }
            ]
        ],
        "menu_order": 0,
        "position": "normal",
        "style": "default",
        "label_placement": "top",
        "instruction_placement": "label",
        "hide_on_screen": [],
        "active": 1,
        "description": "",
        "old_ID": 2928
    },
    {
        "key": "group_5b1502303d0f9",
        "title": "Testimonials",
        "fields": [
            {
                "key": "field_5396f1ba5253e",
                "label": "Clients",
                "name": "clients",
                "type": "repeater",
                "instructions": "",
                "required": 0,
                "conditional_logic": 0,
                "wrapper": {
                    "width": "",
                    "class": "",
                    "id": ""
                },
                "row_min": "",
                "row_limit": "",
                "layout": "table",
                "button_label": "Add Testimonial",
                "min": 0,
                "max": 0,
                "collapsed": "",
                "sub_fields": [
                    {
                        "key": "field_5396f1c05253f",
                        "label": "Image",
                        "name": "image",
                        "type": "image",
                        "instructions": "",
                        "required": 0,
                        "conditional_logic": 0,
                        "wrapper": {
                            "width": "",
                            "class": "",
                            "id": ""
                        },
                        "return_format": "array",
                        "preview_size": "thumbnail",
                        "library": "all",
                        "min_width": "",
                        "min_height": "",
                        "min_size": "",
                        "max_width": "",
                        "max_height": "",
                        "max_size": "",
                        "mime_types": ""
                    },
                    {
                        "key": "field_5396f1c452540",
                        "label": "Name",
                        "name": "name",
                        "type": "text",
                        "instructions": "",
                        "required": 0,
                        "conditional_logic": 0,
                        "wrapper": {
                            "width": "",
                            "class": "",
                            "id": ""
                        },
                        "default_value": "",
                        "placeholder": "",
                        "prepend": "",
                        "append": "",
                        "formatting": "html",
                        "maxlength": ""
                    },
                    {
                        "key": "field_5396f1c852541",
                        "label": "Company",
                        "name": "company",
                        "type": "text",
                        "instructions": "",
                        "required": 0,
                        "conditional_logic": 0,
                        "wrapper": {
                            "width": "",
                            "class": "",
                            "id": ""
                        },
                        "default_value": "",
                        "placeholder": "",
                        "prepend": "",
                        "append": "",
                        "formatting": "html",
                        "maxlength": ""
                    },
                    {
                        "key": "field_5396f1ce52542",
                        "label": "Testimonial",
                        "name": "testimonial",
                        "type": "textarea",
                        "instructions": "",
                        "required": 0,
                        "conditional_logic": 0,
                        "wrapper": {
                            "width": "",
                            "class": "",
                            "id": ""
                        },
                        "default_value": "",
                        "placeholder": "",
                        "maxlength": 200,
                        "rows": "",
                        "new_lines": "br"
                    }
                ]
            }
        ],
        "location": [
            [
                {
                    "param": "page",
                    "operator": "==",
                    "value": "2021"
                }
            ]
        ],
        "menu_order": 0,
        "position": "normal",
        "style": "seamless",
        "label_placement": "top",
        "instruction_placement": "label",
        "hide_on_screen": [
            "the_content"
        ],
        "active": 1,
        "description": ""
    },
    {
        "key": "group_5b15022fa8ea3",
        "title": "Global",
        "fields": [
            {
                "key": "field_57a2fca7af846",
                "label": "Logo",
                "name": "logo",
                "type": "image",
                "instructions": "",
                "required": 0,
                "conditional_logic": 0,
                "wrapper": {
                    "width": "",
                    "class": "",
                    "id": ""
                },
                "preview_size": "full",
                "library": "all",
                "return_format": "array",
                "min_width": 0,
                "min_height": 0,
                "min_size": 0,
                "max_width": 0,
                "max_height": 0,
                "max_size": 0,
                "mime_types": ""
            },
            {
                "key": "field_595482f15bcc9",
                "label": "Alternative Logo",
                "name": "alternative_logo",
                "type": "image",
                "instructions": "",
                "required": 0,
                "conditional_logic": 0,
                "wrapper": {
                    "width": "",
                    "class": "",
                    "id": ""
                },
                "preview_size": "thumbnail",
                "library": "all",
                "return_format": "array",
                "min_width": 0,
                "min_height": 0,
                "min_size": 0,
                "max_width": 0,
                "max_height": 0,
                "max_size": 0,
                "mime_types": ""
            },
            {
                "key": "field_5396e9bf018df",
                "label": "Memberships",
                "name": "memberships",
                "type": "repeater",
                "instructions": "",
                "required": 0,
                "conditional_logic": 0,
                "wrapper": {
                    "width": "",
                    "class": "",
                    "id": ""
                },
                "row_min": "",
                "row_limit": "",
                "layout": "table",
                "button_label": "Add Row",
                "min": 0,
                "max": 0,
                "collapsed": "",
                "sub_fields": [
                    {
                        "key": "field_5396e9c6018e0",
                        "label": "Logo",
                        "name": "logo",
                        "type": "image",
                        "instructions": "",
                        "required": 0,
                        "conditional_logic": 0,
                        "wrapper": {
                            "width": "",
                            "class": "",
                            "id": ""
                        },
                        "return_format": "array",
                        "preview_size": "thumbnail",
                        "library": "all",
                        "min_width": "",
                        "min_height": "",
                        "min_size": "",
                        "max_width": "",
                        "max_height": "",
                        "max_size": "",
                        "mime_types": ""
                    },
                    {
                        "key": "field_5396e9cd018e1",
                        "label": "Link",
                        "name": "link",
                        "type": "text",
                        "instructions": "",
                        "required": 0,
                        "conditional_logic": 0,
                        "wrapper": {
                            "width": "",
                            "class": "",
                            "id": ""
                        },
                        "default_value": "",
                        "placeholder": "",
                        "prepend": "",
                        "append": "",
                        "formatting": "html",
                        "maxlength": ""
                    }
                ]
            },
            {
                "key": "field_575e692b94ad7",
                "label": "As Featured on",
                "name": "featured_on",
                "type": "repeater",
                "instructions": "",
                "required": 0,
                "conditional_logic": 0,
                "wrapper": {
                    "width": "",
                    "class": "",
                    "id": ""
                },
                "row_min": "",
                "row_limit": "",
                "layout": "table",
                "button_label": "Add Row",
                "min": 0,
                "max": 0,
                "collapsed": "",
                "sub_fields": [
                    {
                        "key": "field_575e692b94ad8",
                        "label": "Logo",
                        "name": "logo",
                        "type": "image",
                        "instructions": "",
                        "required": 0,
                        "conditional_logic": 0,
                        "wrapper": {
                            "width": "",
                            "class": "",
                            "id": ""
                        },
                        "preview_size": "thumbnail",
                        "library": "all",
                        "return_format": "url",
                        "min_width": 0,
                        "min_height": 0,
                        "min_size": 0,
                        "max_width": 0,
                        "max_height": 0,
                        "max_size": 0,
                        "mime_types": ""
                    },
                    {
                        "key": "field_575e692b94ad9",
                        "label": "Link",
                        "name": "link",
                        "type": "text",
                        "instructions": "",
                        "required": 0,
                        "conditional_logic": 0,
                        "wrapper": {
                            "width": "",
                            "class": "",
                            "id": ""
                        },
                        "default_value": "",
                        "placeholder": "",
                        "prepend": "",
                        "append": "",
                        "formatting": "html",
                        "maxlength": ""
                    }
                ]
            },
            {
                "key": "field_5396e9f4018e2",
                "label": "Social Media",
                "name": "social_media",
                "type": "wysiwyg",
                "instructions": "",
                "required": 0,
                "conditional_logic": 0,
                "wrapper": {
                    "width": "",
                    "class": "",
                    "id": ""
                },
                "default_value": "",
                "toolbar": "full",
                "media_upload": 1,
                "tabs": "all",
                "delay": 0
            },
            {
                "key": "field_5396ea01018e3",
                "label": "Footer Text",
                "name": "footer_text",
                "type": "wysiwyg",
                "instructions": "",
                "required": 0,
                "conditional_logic": 0,
                "wrapper": {
                    "width": "",
                    "class": "",
                    "id": ""
                },
                "default_value": "",
                "toolbar": "full",
                "media_upload": 0,
                "tabs": "all",
                "delay": 0
            },
            {
                "key": "field_5396ea08018e4",
                "label": "Header Text",
                "name": "header_text",
                "type": "wysiwyg",
                "instructions": "",
                "required": 0,
                "conditional_logic": 0,
                "wrapper": {
                    "width": "",
                    "class": "",
                    "id": ""
                },
                "default_value": "",
                "toolbar": "full",
                "media_upload": 0,
                "tabs": "all",
                "delay": 0
            },
            {
                "key": "field_5396ea24b574e",
                "label": "Contact Info",
                "name": "contact_info",
                "type": "wysiwyg",
                "instructions": "",
                "required": 0,
                "conditional_logic": 0,
                "wrapper": {
                    "width": "",
                    "class": "",
                    "id": ""
                },
                "default_value": "",
                "toolbar": "full",
                "media_upload": 1,
                "tabs": "all",
                "delay": 0
            },
            {
                "key": "field_5396f08a5feef",
                "label": "Footer Social Media",
                "name": "footer_social_media",
                "type": "wysiwyg",
                "instructions": "",
                "required": 0,
                "conditional_logic": 0,
                "wrapper": {
                    "width": "",
                    "class": "",
                    "id": ""
                },
                "default_value": "",
                "toolbar": "full",
                "media_upload": 1,
                "tabs": "all",
                "delay": 0
            },
            {
                "key": "field_56c6aea2ac8fe",
                "label": "Facebook",
                "name": "social_link_facebook",
                "type": "text",
                "instructions": "",
                "required": 0,
                "conditional_logic": 0,
                "wrapper": {
                    "width": "",
                    "class": "",
                    "id": ""
                },
                "default_value": "",
                "placeholder": "",
                "prepend": "",
                "append": "",
                "formatting": "none",
                "maxlength": ""
            },
            {
                "key": "field_56c6aeb7ac8ff",
                "label": "Google Plus",
                "name": "social_link_googleplus",
                "type": "text",
                "instructions": "",
                "required": 0,
                "conditional_logic": 0,
                "wrapper": {
                    "width": "",
                    "class": "",
                    "id": ""
                },
                "default_value": "",
                "placeholder": "",
                "prepend": "",
                "append": "",
                "formatting": "none",
                "maxlength": ""
            },
            {
                "key": "field_56c6af84ac900",
                "label": "Instagram",
                "name": "social_link_instagram",
                "type": "text",
                "instructions": "",
                "required": 0,
                "conditional_logic": 0,
                "wrapper": {
                    "width": "",
                    "class": "",
                    "id": ""
                },
                "default_value": "",
                "placeholder": "",
                "prepend": "",
                "append": "",
                "formatting": "none",
                "maxlength": ""
            },
            {
                "key": "field_56c6af91ac901",
                "label": "Linkedin",
                "name": "social_link_linkedin",
                "type": "text",
                "instructions": "",
                "required": 0,
                "conditional_logic": 0,
                "wrapper": {
                    "width": "",
                    "class": "",
                    "id": ""
                },
                "default_value": "",
                "placeholder": "",
                "prepend": "",
                "append": "",
                "formatting": "none",
                "maxlength": ""
            },
            {
                "key": "field_56c6afaaac902",
                "label": "Pinterest",
                "name": "social_link_pinterest",
                "type": "text",
                "instructions": "",
                "required": 0,
                "conditional_logic": 0,
                "wrapper": {
                    "width": "",
                    "class": "",
                    "id": ""
                },
                "default_value": "",
                "placeholder": "",
                "prepend": "",
                "append": "",
                "formatting": "none",
                "maxlength": ""
            },
            {
                "key": "field_56c6afbbac903",
                "label": "Twitter",
                "name": "social_link_twitter",
                "type": "text",
                "instructions": "",
                "required": 0,
                "conditional_logic": 0,
                "wrapper": {
                    "width": "",
                    "class": "",
                    "id": ""
                },
                "default_value": "",
                "placeholder": "",
                "prepend": "",
                "append": "",
                "formatting": "none",
                "maxlength": ""
            },
            {
                "key": "field_580970641e0a9",
                "label": "Footer Contact Form Title",
                "name": "footer_contact_form_title",
                "type": "text",
                "instructions": "",
                "required": 0,
                "conditional_logic": 0,
                "wrapper": {
                    "width": "",
                    "class": "",
                    "id": ""
                },
                "default_value": "",
                "placeholder": "",
                "prepend": "",
                "append": "",
                "formatting": "none",
                "maxlength": ""
            },
            {
                "key": "field_580970761e0aa",
                "label": "Footer Contact Form Description",
                "name": "footer_contact_form_description",
                "type": "textarea",
                "instructions": "",
                "required": 0,
                "conditional_logic": 0,
                "wrapper": {
                    "width": "",
                    "class": "",
                    "id": ""
                },
                "default_value": "",
                "placeholder": "",
                "maxlength": "",
                "rows": "",
                "new_lines": "br"
            },
            {
                "key": "field_5988118adcfdc",
                "label": "Location",
                "name": "location",
                "type": "text",
                "instructions": "",
                "required": 0,
                "conditional_logic": 0,
                "wrapper": {
                    "width": "",
                    "class": "",
                    "id": ""
                },
                "default_value": "",
                "placeholder": "",
                "prepend": "",
                "append": "",
                "formatting": "html",
                "maxlength": ""
            },
            {
                "key": "field_59881192dcfdd",
                "label": "Phone",
                "name": "phone",
                "type": "text",
                "instructions": "",
                "required": 0,
                "conditional_logic": 0,
                "wrapper": {
                    "width": "",
                    "class": "",
                    "id": ""
                },
                "default_value": "",
                "placeholder": "",
                "prepend": "",
                "append": "",
                "formatting": "html",
                "maxlength": ""
            },
            {
                "key": "field_5988119adcfde",
                "label": "Email",
                "name": "email",
                "type": "text",
                "instructions": "",
                "required": 0,
                "conditional_logic": 0,
                "wrapper": {
                    "width": "",
                    "class": "",
                    "id": ""
                },
                "default_value": "",
                "placeholder": "",
                "prepend": "",
                "append": "",
                "formatting": "html",
                "maxlength": ""
            },
            {
                "key": "field_5a1fb6d67e909",
                "label": "Awards",
                "name": "awards",
                "type": "repeater",
                "instructions": "",
                "required": 0,
                "conditional_logic": 0,
                "wrapper": {
                    "width": "",
                    "class": "",
                    "id": ""
                },
                "save_format": "object",
                "preview_size": "thumbnail",
                "library": "all",
                "row_min": "",
                "row_limit": "",
                "layout": "table",
                "button_label": "Add Award",
                "min": 0,
                "max": 0,
                "collapsed": "",
                "sub_fields": [
                    {
                        "key": "field_5a1fb6f77e90b",
                        "label": "Image",
                        "name": "image",
                        "type": "image",
                        "instructions": "",
                        "required": 0,
                        "conditional_logic": 0,
                        "wrapper": {
                            "width": "",
                            "class": "",
                            "id": ""
                        },
                        "preview_size": "thumbnail",
                        "library": "all",
                        "return_format": "array",
                        "min_width": 0,
                        "min_height": 0,
                        "min_size": 0,
                        "max_width": 0,
                        "max_height": 0,
                        "max_size": 0,
                        "mime_types": ""
                    },
                    {
                        "key": "field_5a1fb7057e90c",
                        "label": "Link",
                        "name": "link",
                        "type": "text",
                        "instructions": "",
                        "required": 0,
                        "conditional_logic": 0,
                        "wrapper": {
                            "width": "",
                            "class": "",
                            "id": ""
                        },
                        "default_value": "",
                        "placeholder": "",
                        "prepend": "",
                        "append": "",
                        "formatting": "html",
                        "maxlength": ""
                    }
                ]
            },
            {
                "key": "field_5b19e75f690a4",
                "label": "Testimonials Page ID",
                "name": "testimonials_page",
                "type": "post_object",
                "instructions": "",
                "required": 0,
                "conditional_logic": 0,
                "wrapper": {
                    "width": "",
                    "class": "",
                    "id": ""
                },
                "post_type": [
                    "page"
                ],
                "taxonomy": [],
                "allow_null": 0,
                "multiple": 0,
                "return_format": "id",
                "ui": 1
            },
            {
                "key": "field_5b1f909a6447e",
                "label": "Contact Page ID",
                "name": "contact_page",
                "type": "post_object",
                "instructions": "",
                "required": 0,
                "conditional_logic": 0,
                "wrapper": {
                    "width": "",
                    "class": "",
                    "id": ""
                },
                "post_type": [
                    "page"
                ],
                "taxonomy": [],
                "allow_null": 0,
                "multiple": 0,
                "return_format": "id",
                "ui": 1
            },
            {
                "key": "field_5b308c969b0af",
                "label": "Projects Page Description",
                "name": "projects_page_description",
                "type": "textarea",
                "instructions": "This text will appear on projects page below the Title",
                "required": 0,
                "conditional_logic": 0,
                "wrapper": {
                    "width": "",
                    "class": "",
                    "id": ""
                },
                "default_value": "",
                "placeholder": "",
                "maxlength": "",
                "rows": 4,
                "new_lines": "br"
            }
        ],
        "location": [
            [
                {
                    "param": "options_page",
                    "operator": "==",
                    "value": "acf-options"
                }
            ]
        ],
        "menu_order": 0,
        "position": "normal",
        "style": "default",
        "label_placement": "top",
        "instruction_placement": "label",
        "hide_on_screen": "",
        "active": 1,
        "description": ""
    },
    {
        "key": "group_5b15023000df6",
        "title": "Home Page",
        "fields": [
            {
                "key": "field_5b160f0a965ff",
                "label": "About Section",
                "name": "",
                "type": "tab",
                "instructions": "",
                "required": 0,
                "conditional_logic": 0,
                "wrapper": {
                    "width": "",
                    "class": "",
                    "id": ""
                },
                "placement": "top",
                "endpoint": 0
            },
            {
                "key": "field_575e69670bada",
                "label": "Hero Image",
                "name": "hero_image",
                "type": "image",
                "instructions": "",
                "required": 0,
                "conditional_logic": 0,
                "wrapper": {
                    "width": "",
                    "class": "",
                    "id": ""
                },
                "return_format": "array",
                "preview_size": "medium",
                "library": "all",
                "min_width": "",
                "min_height": "",
                "min_size": "",
                "max_width": "",
                "max_height": "",
                "max_size": "",
                "mime_types": ""
            },
            {
                "key": "field_57a030b05981c",
                "label": "Hero Text",
                "name": "about_text",
                "type": "wysiwyg",
                "instructions": "",
                "required": 0,
                "conditional_logic": 0,
                "wrapper": {
                    "width": "",
                    "class": "",
                    "id": ""
                },
                "default_value": "",
                "tabs": "all",
                "toolbar": "full",
                "media_upload": 0,
                "delay": 0
            },
            {
                "key": "field_5b160ebb965fd",
                "label": "Hero Button Text",
                "name": "about_button_text",
                "type": "text",
                "instructions": "",
                "required": 0,
                "conditional_logic": 0,
                "wrapper": {
                    "width": "",
                    "class": "",
                    "id": ""
                },
                "default_value": "",
                "placeholder": "",
                "prepend": "",
                "append": "",
                "maxlength": ""
            },
            {
                "key": "field_5b160ecd965fe",
                "label": "Hero Button Link",
                "name": "about_button_link",
                "type": "page_link",
                "instructions": "",
                "required": 0,
                "conditional_logic": 0,
                "wrapper": {
                    "width": "",
                    "class": "",
                    "id": ""
                },
                "post_type": [
                    "page"
                ],
                "taxonomy": [],
                "allow_null": 0,
                "allow_archives": 1,
                "multiple": 0
            },
            {
                "key": "field_5b160f1c96600",
                "label": "Projects Section",
                "name": "",
                "type": "tab",
                "instructions": "",
                "required": 0,
                "conditional_logic": 0,
                "wrapper": {
                    "width": "",
                    "class": "",
                    "id": ""
                },
                "placement": "top",
                "endpoint": 0
            },
            {
                "key": "field_5b160f3b96601",
                "label": "Title",
                "name": "projects_title",
                "type": "text",
                "instructions": "",
                "required": 0,
                "conditional_logic": 0,
                "wrapper": {
                    "width": "",
                    "class": "",
                    "id": ""
                },
                "default_value": "",
                "placeholder": "",
                "prepend": "",
                "append": "",
                "maxlength": ""
            },
            {
                "key": "field_5b160f4d96602",
                "label": "Posts Per Page",
                "name": "projects_posts_per_page",
                "type": "text",
                "instructions": "",
                "required": 0,
                "conditional_logic": 0,
                "wrapper": {
                    "width": "",
                    "class": "",
                    "id": ""
                },
                "default_value": "",
                "placeholder": "",
                "prepend": "",
                "append": "",
                "maxlength": ""
            },
            {
                "key": "field_5b160f6a96603",
                "label": "Projects Button Text",
                "name": "projects_button_text",
                "type": "text",
                "instructions": "",
                "required": 0,
                "conditional_logic": 0,
                "wrapper": {
                    "width": "",
                    "class": "",
                    "id": ""
                },
                "default_value": "",
                "placeholder": "",
                "prepend": "",
                "append": "",
                "maxlength": ""
            },
            {
                "key": "field_5b160fa096605",
                "label": "Services Section",
                "name": "",
                "type": "tab",
                "instructions": "",
                "required": 0,
                "conditional_logic": 0,
                "wrapper": {
                    "width": "",
                    "class": "",
                    "id": ""
                },
                "placement": "top",
                "endpoint": 0
            },
            {
                "key": "field_5b3456b8249d7",
                "label": "Link List",
                "name": "link_list",
                "type": "repeater",
                "instructions": "You can use this options to show a list of link with image.",
                "required": 0,
                "conditional_logic": 0,
                "wrapper": {
                    "width": "",
                    "class": "",
                    "id": ""
                },
                "collapsed": "field_5b3456dc249d8",
                "min": 0,
                "max": 0,
                "layout": "row",
                "button_label": "Add Link",
                "sub_fields": [
                    {
                        "key": "field_5b3456dc249d8",
                        "label": "Title",
                        "name": "title",
                        "type": "text",
                        "instructions": "",
                        "required": 0,
                        "conditional_logic": 0,
                        "wrapper": {
                            "width": "",
                            "class": "",
                            "id": ""
                        },
                        "default_value": "",
                        "placeholder": "",
                        "prepend": "",
                        "append": "",
                        "maxlength": ""
                    },
                    {
                        "key": "field_5b3456e2249d9",
                        "label": "Description",
                        "name": "description",
                        "type": "textarea",
                        "instructions": "",
                        "required": 0,
                        "conditional_logic": 0,
                        "wrapper": {
                            "width": "",
                            "class": "",
                            "id": ""
                        },
                        "default_value": "",
                        "placeholder": "",
                        "maxlength": "",
                        "rows": "",
                        "new_lines": "br"
                    },
                    {
                        "key": "field_5b3456ee249da",
                        "label": "Button Text",
                        "name": "button_text",
                        "type": "text",
                        "instructions": "",
                        "required": 0,
                        "conditional_logic": 0,
                        "wrapper": {
                            "width": "",
                            "class": "",
                            "id": ""
                        },
                        "default_value": "",
                        "placeholder": "",
                        "prepend": "",
                        "append": "",
                        "maxlength": ""
                    },
                    {
                        "key": "field_5b3456f5249db",
                        "label": "Button URL",
                        "name": "button_url",
                        "type": "link",
                        "instructions": "",
                        "required": 0,
                        "conditional_logic": 0,
                        "wrapper": {
                            "width": "",
                            "class": "",
                            "id": ""
                        },
                        "return_format": "url"
                    },
                    {
                        "key": "field_5b34571a249dc",
                        "label": "Image",
                        "name": "image",
                        "type": "image",
                        "instructions": "",
                        "required": 0,
                        "conditional_logic": 0,
                        "wrapper": {
                            "width": "",
                            "class": "",
                            "id": ""
                        },
                        "return_format": "array",
                        "preview_size": "thumbnail",
                        "library": "all",
                        "min_width": "",
                        "min_height": "",
                        "min_size": "",
                        "max_width": "",
                        "max_height": "",
                        "max_size": "",
                        "mime_types": ""
                    }
                ]
            },
            {
                "key": "field_5b1610bf9660e",
                "label": "Testimonials Section",
                "name": "",
                "type": "tab",
                "instructions": "",
                "required": 0,
                "conditional_logic": 0,
                "wrapper": {
                    "width": "",
                    "class": "",
                    "id": ""
                },
                "placement": "top",
                "endpoint": 0
            },
            {
                "key": "field_5b1610d59660f",
                "label": "Testimonials Title",
                "name": "testimonials_title",
                "type": "text",
                "instructions": "",
                "required": 0,
                "conditional_logic": 0,
                "wrapper": {
                    "width": "",
                    "class": "",
                    "id": ""
                },
                "default_value": "",
                "placeholder": "",
                "prepend": "",
                "append": "",
                "maxlength": ""
            },
            {
                "key": "field_5b344f2cb5051",
                "label": "",
                "name": "",
                "type": "message",
                "instructions": "",
                "required": 0,
                "conditional_logic": 0,
                "wrapper": {
                    "width": "",
                    "class": "",
                    "id": ""
                },
                "message": "For adding or modifying Testimonials, you can find \"Testimonials\" page from the list of page. Edit that page, you can find list of testimonial inside that page.",
                "new_lines": "wpautop",
                "esc_html": 0
            },
            {
                "key": "field_5b16112d96612",
                "label": "Contact Section",
                "name": "",
                "type": "tab",
                "instructions": "",
                "required": 0,
                "conditional_logic": 0,
                "wrapper": {
                    "width": "",
                    "class": "",
                    "id": ""
                },
                "placement": "top",
                "endpoint": 0
            },
            {
                "key": "field_5b19f13385798",
                "label": "Show Contact",
                "name": "show_contact",
                "type": "true_false",
                "instructions": "",
                "required": 0,
                "conditional_logic": 0,
                "wrapper": {
                    "width": "",
                    "class": "",
                    "id": ""
                },
                "message": "",
                "default_value": 0,
                "ui": 0,
                "ui_on_text": "",
                "ui_off_text": ""
            },
            {
                "key": "field_5b344f01b504e",
                "label": "Instagram",
                "name": "",
                "type": "tab",
                "instructions": "",
                "required": 0,
                "conditional_logic": 0,
                "wrapper": {
                    "width": "",
                    "class": "",
                    "id": ""
                },
                "placement": "top",
                "endpoint": 0
            },
            {
                "key": "field_5b344f0db504f",
                "label": "Instagram Title",
                "name": "instagram_title",
                "type": "text",
                "instructions": "",
                "required": 0,
                "conditional_logic": 0,
                "wrapper": {
                    "width": "",
                    "class": "",
                    "id": ""
                },
                "default_value": "",
                "placeholder": "",
                "prepend": "",
                "append": "",
                "maxlength": ""
            },
            {
                "key": "field_5b344f12b5050",
                "label": "Number of Instagram photo to show",
                "name": "instagram_posts_per_page",
                "type": "number",
                "instructions": "",
                "required": 0,
                "conditional_logic": 0,
                "wrapper": {
                    "width": "",
                    "class": "",
                    "id": ""
                },
                "default_value": "",
                "placeholder": "",
                "prepend": "",
                "append": "",
                "min": "",
                "max": "",
                "step": ""
            }
        ],
        "location": [
            [
                {
                    "param": "page_template",
                    "operator": "==",
                    "value": "template-home.php"
                }
            ]
        ],
        "menu_order": 0,
        "position": "normal",
        "style": "default",
        "label_placement": "top",
        "instruction_placement": "label",
        "hide_on_screen": [
            "the_content"
        ],
        "active": 1,
        "description": ""
    },
    {
        "key": "group_5b15022f18d50",
        "title": "About Page",
        "fields": [
            {
                "key": "field_5b1e3e3947f41",
                "label": "About Details",
                "name": "",
                "type": "tab",
                "instructions": "",
                "required": 0,
                "conditional_logic": 0,
                "wrapper": {
                    "width": "",
                    "class": "",
                    "id": ""
                },
                "placement": "top",
                "endpoint": 0
            },
            {
                "key": "field_5b31f162a91b9",
                "label": "Content",
                "name": "about_content",
                "type": "flexible_content",
                "instructions": "",
                "required": 0,
                "conditional_logic": 0,
                "wrapper": {
                    "width": "",
                    "class": "",
                    "id": ""
                },
                "layouts": {
                    "5b31f16c63461": {
                        "key": "5b31f16c63461",
                        "name": "image_left_section",
                        "label": "Image on Left",
                        "display": "block",
                        "sub_fields": [
                            {
                                "key": "field_5b31f196a91ba",
                                "label": "Image",
                                "name": "image",
                                "type": "image",
                                "instructions": "",
                                "required": 0,
                                "conditional_logic": 0,
                                "wrapper": {
                                    "width": "",
                                    "class": "",
                                    "id": ""
                                },
                                "return_format": "array",
                                "preview_size": "thumbnail",
                                "library": "all",
                                "min_width": "",
                                "min_height": "",
                                "min_size": "",
                                "max_width": "",
                                "max_height": "",
                                "max_size": "",
                                "mime_types": ""
                            },
                            {
                                "key": "field_5b31f20ea91be",
                                "label": "Image Decoration",
                                "name": "image_decoration",
                                "type": "true_false",
                                "instructions": "",
                                "required": 0,
                                "conditional_logic": 0,
                                "wrapper": {
                                    "width": "",
                                    "class": "",
                                    "id": ""
                                },
                                "message": "Check this if you want to show square image decoration behind the Image",
                                "default_value": 0,
                                "ui": 0,
                                "ui_on_text": "",
                                "ui_off_text": ""
                            },
                            {
                                "key": "field_5b31f23ca91bf",
                                "label": "Image Decoration Color",
                                "name": "image_decoration_color",
                                "type": "color_picker",
                                "instructions": "",
                                "required": 0,
                                "conditional_logic": [
                                    [
                                        {
                                            "field": "field_5b31f20ea91be",
                                            "operator": "==",
                                            "value": "1"
                                        }
                                    ]
                                ],
                                "wrapper": {
                                    "width": "",
                                    "class": "",
                                    "id": ""
                                },
                                "default_value": ""
                            },
                            {
                                "key": "field_5b31f19ca91bb",
                                "label": "Vertical Align",
                                "name": "vertical_align",
                                "type": "select",
                                "instructions": "Vertical align of image and the text",
                                "required": 0,
                                "conditional_logic": 0,
                                "wrapper": {
                                    "width": "",
                                    "class": "",
                                    "id": ""
                                },
                                "choices": {
                                    "top": "Top",
                                    "middle": "Middle",
                                    "bottom": "Bottom"
                                },
                                "default_value": [
                                    "middle"
                                ],
                                "allow_null": 0,
                                "multiple": 0,
                                "ui": 0,
                                "ajax": 0,
                                "return_format": "value",
                                "placeholder": ""
                            },
                            {
                                "key": "field_5b31f1dea91bc",
                                "label": "Title",
                                "name": "title",
                                "type": "text",
                                "instructions": "",
                                "required": 0,
                                "conditional_logic": 0,
                                "wrapper": {
                                    "width": "",
                                    "class": "",
                                    "id": ""
                                },
                                "default_value": "",
                                "placeholder": "",
                                "prepend": "",
                                "append": "",
                                "maxlength": ""
                            },
                            {
                                "key": "field_5b31f1e3a91bd",
                                "label": "Text",
                                "name": "text",
                                "type": "wysiwyg",
                                "instructions": "",
                                "required": 0,
                                "conditional_logic": 0,
                                "wrapper": {
                                    "width": "",
                                    "class": "",
                                    "id": ""
                                },
                                "default_value": "",
                                "tabs": "all",
                                "toolbar": "full",
                                "media_upload": 1,
                                "delay": 0
                            }
                        ],
                        "min": "",
                        "max": ""
                    },
                    "5b31f43ba91c0": {
                        "key": "5b31f43ba91c0",
                        "name": "image_right_section",
                        "label": "Image on Right",
                        "display": "block",
                        "sub_fields": [
                            {
                                "key": "field_5b31f43ba91c1",
                                "label": "Image",
                                "name": "image",
                                "type": "image",
                                "instructions": "",
                                "required": 0,
                                "conditional_logic": 0,
                                "wrapper": {
                                    "width": "",
                                    "class": "",
                                    "id": ""
                                },
                                "return_format": "array",
                                "preview_size": "thumbnail",
                                "library": "all",
                                "min_width": "",
                                "min_height": "",
                                "min_size": "",
                                "max_width": "",
                                "max_height": "",
                                "max_size": "",
                                "mime_types": ""
                            },
                            {
                                "key": "field_5b31f43ba91c2",
                                "label": "Image Decoration",
                                "name": "image_decoration",
                                "type": "true_false",
                                "instructions": "",
                                "required": 0,
                                "conditional_logic": 0,
                                "wrapper": {
                                    "width": "",
                                    "class": "",
                                    "id": ""
                                },
                                "message": "Check this if you want to show square image decoration behind the Image",
                                "default_value": 0,
                                "ui": 0,
                                "ui_on_text": "",
                                "ui_off_text": ""
                            },
                            {
                                "key": "field_5b31f43ba91c3",
                                "label": "Image Decoration Color",
                                "name": "image_decoration_color",
                                "type": "color_picker",
                                "instructions": "",
                                "required": 0,
                                "conditional_logic": [
                                    [
                                        {
                                            "field": "field_5b31f43ba91c2",
                                            "operator": "==",
                                            "value": "1"
                                        }
                                    ]
                                ],
                                "wrapper": {
                                    "width": "",
                                    "class": "",
                                    "id": ""
                                },
                                "default_value": ""
                            },
                            {
                                "key": "field_5b31f43ba91c4",
                                "label": "Vertical Align",
                                "name": "vertical_align",
                                "type": "select",
                                "instructions": "Vertical align of image and the text",
                                "required": 0,
                                "conditional_logic": 0,
                                "wrapper": {
                                    "width": "",
                                    "class": "",
                                    "id": ""
                                },
                                "choices": {
                                    "top": "Top",
                                    "middle": "Middle",
                                    "bottom": "Bottom"
                                },
                                "default_value": [
                                    "middle"
                                ],
                                "allow_null": 0,
                                "multiple": 0,
                                "ui": 0,
                                "ajax": 0,
                                "return_format": "value",
                                "placeholder": ""
                            },
                            {
                                "key": "field_5b31f43ba91c5",
                                "label": "Title",
                                "name": "title",
                                "type": "text",
                                "instructions": "",
                                "required": 0,
                                "conditional_logic": 0,
                                "wrapper": {
                                    "width": "",
                                    "class": "",
                                    "id": ""
                                },
                                "default_value": "",
                                "placeholder": "",
                                "prepend": "",
                                "append": "",
                                "maxlength": ""
                            },
                            {
                                "key": "field_5b31f43ba91c6",
                                "label": "Text",
                                "name": "text",
                                "type": "wysiwyg",
                                "instructions": "",
                                "required": 0,
                                "conditional_logic": 0,
                                "wrapper": {
                                    "width": "",
                                    "class": "",
                                    "id": ""
                                },
                                "default_value": "",
                                "tabs": "all",
                                "toolbar": "full",
                                "media_upload": 1,
                                "delay": 0
                            }
                        ],
                        "min": "",
                        "max": ""
                    }
                },
                "button_label": "Add Row",
                "min": "",
                "max": ""
            },
            {
                "key": "field_5b1e3e6c47f44",
                "label": "Memberships",
                "name": "",
                "type": "tab",
                "instructions": "",
                "required": 0,
                "conditional_logic": 0,
                "wrapper": {
                    "width": "",
                    "class": "",
                    "id": ""
                },
                "placement": "top",
                "endpoint": 0
            },
            {
                "key": "field_5b1e3ef347f45",
                "label": "Title",
                "name": "title_membership",
                "type": "text",
                "instructions": "",
                "required": 0,
                "conditional_logic": 0,
                "wrapper": {
                    "width": "",
                    "class": "",
                    "id": ""
                },
                "default_value": "",
                "placeholder": "",
                "prepend": "",
                "append": "",
                "maxlength": ""
            },
            {
                "key": "field_5b32008774d53",
                "label": "",
                "name": "",
                "type": "message",
                "instructions": "",
                "required": 0,
                "conditional_logic": 0,
                "wrapper": {
                    "width": "",
                    "class": "",
                    "id": ""
                },
                "message": "You can add Membership list from the Options page on the left.",
                "new_lines": "wpautop",
                "esc_html": 0
            }
        ],
        "location": [
            [
                {
                    "param": "post_template",
                    "operator": "==",
                    "value": "template-about.php"
                }
            ]
        ],
        "menu_order": 0,
        "position": "normal",
        "style": "default",
        "label_placement": "top",
        "instruction_placement": "label",
        "hide_on_screen": "",
        "active": 1,
        "description": ""
    },
    {
        "key": "group_5b15022f5aa6b",
        "title": "Contact",
        "fields": [
            {
                "key": "field_539e60443ab58",
                "label": "Intro Paragraph",
                "name": "intro_paragraph",
                "type": "textarea",
                "instructions": "",
                "required": 0,
                "conditional_logic": 0,
                "wrapper": {
                    "width": "",
                    "class": "",
                    "id": ""
                },
                "default_value": "",
                "placeholder": "",
                "maxlength": "",
                "rows": "",
                "new_lines": "br"
            },
            {
                "key": "field_539e605b3ab59",
                "label": "Background Image",
                "name": "background_image",
                "type": "image",
                "instructions": "",
                "required": 0,
                "conditional_logic": 0,
                "wrapper": {
                    "width": "",
                    "class": "",
                    "id": ""
                },
                "preview_size": "thumbnail",
                "library": "all",
                "return_format": "url",
                "min_width": 0,
                "min_height": 0,
                "min_size": 0,
                "max_width": 0,
                "max_height": 0,
                "max_size": 0,
                "mime_types": ""
            }
        ],
        "location": [
            [
                {
                    "param": "page",
                    "operator": "==",
                    "value": "2227"
                }
            ]
        ],
        "menu_order": 0,
        "position": "normal",
        "style": "seamless",
        "label_placement": "top",
        "instruction_placement": "label",
        "hide_on_screen": "",
        "active": 1,
        "description": ""
    },
    {
        "key": "group_5b1f469f68a77",
        "title": "Design Process",
        "fields": [
            {
                "key": "field_5b1f46c2b8714",
                "label": "Design Process",
                "name": "design_process",
                "type": "repeater",
                "instructions": "",
                "required": 0,
                "conditional_logic": 0,
                "wrapper": {
                    "width": "",
                    "class": "",
                    "id": ""
                },
                "collapsed": "",
                "min": 0,
                "max": 0,
                "layout": "table",
                "button_label": "Add",
                "sub_fields": [
                    {
                        "key": "field_5b1f46feb8715",
                        "label": "Title",
                        "name": "title",
                        "type": "text",
                        "instructions": "",
                        "required": 0,
                        "conditional_logic": 0,
                        "wrapper": {
                            "width": "30",
                            "class": "",
                            "id": ""
                        },
                        "default_value": "",
                        "placeholder": "",
                        "prepend": "",
                        "append": "",
                        "maxlength": ""
                    },
                    {
                        "key": "field_5b1f4703b8716",
                        "label": "Description",
                        "name": "description",
                        "type": "textarea",
                        "instructions": "",
                        "required": 0,
                        "conditional_logic": 0,
                        "wrapper": {
                            "width": "",
                            "class": "",
                            "id": ""
                        },
                        "default_value": "",
                        "placeholder": "",
                        "maxlength": "",
                        "rows": 4,
                        "new_lines": "wpautop"
                    }
                ]
            },
            {
                "key": "field_5b1f47e3de661",
                "label": "Button Text",
                "name": "button_text",
                "type": "text",
                "instructions": "",
                "required": 0,
                "conditional_logic": 0,
                "wrapper": {
                    "width": "",
                    "class": "",
                    "id": ""
                },
                "default_value": "",
                "placeholder": "",
                "prepend": "",
                "append": "",
                "maxlength": ""
            },
            {
                "key": "field_5b1f47ecde662",
                "label": "Button Link",
                "name": "button_link",
                "type": "url",
                "instructions": "",
                "required": 0,
                "conditional_logic": 0,
                "wrapper": {
                    "width": "",
                    "class": "",
                    "id": ""
                },
                "default_value": "",
                "placeholder": ""
            }
        ],
        "location": [
            [
                {
                    "param": "page_template",
                    "operator": "==",
                    "value": "template-design-process.php"
                }
            ]
        ],
        "menu_order": 0,
        "position": "normal",
        "style": "default",
        "label_placement": "top",
        "instruction_placement": "label",
        "hide_on_screen": "",
        "active": 1,
        "description": ""
    },
    {
        "key": "group_5b15022f6bba0",
        "title": "Design Service",
        "fields": [
            {
                "key": "field_546d7c452a10b",
                "label": "Design Service",
                "name": "design-service",
                "type": "repeater",
                "instructions": "",
                "required": 0,
                "conditional_logic": 0,
                "wrapper": {
                    "width": "",
                    "class": "",
                    "id": ""
                },
                "row_min": "",
                "row_limit": "",
                "layout": "row",
                "button_label": "Add Service",
                "min": 0,
                "max": 0,
                "collapsed": "",
                "sub_fields": [
                    {
                        "key": "field_546d7d8b3d95b",
                        "label": "Image",
                        "name": "image",
                        "type": "image",
                        "instructions": "",
                        "required": 0,
                        "conditional_logic": 0,
                        "wrapper": {
                            "width": "",
                            "class": "",
                            "id": ""
                        },
                        "return_format": "array",
                        "preview_size": "thumbnail",
                        "library": "all",
                        "min_width": "",
                        "min_height": "",
                        "min_size": "",
                        "max_width": "",
                        "max_height": "",
                        "max_size": "",
                        "mime_types": ""
                    },
                    {
                        "key": "field_546d7dcf3d95c",
                        "label": "Title",
                        "name": "title",
                        "type": "text",
                        "instructions": "",
                        "required": 0,
                        "conditional_logic": 0,
                        "wrapper": {
                            "width": "",
                            "class": "",
                            "id": ""
                        },
                        "default_value": "",
                        "placeholder": "",
                        "prepend": "",
                        "append": "",
                        "formatting": "none",
                        "maxlength": ""
                    },
                    {
                        "key": "field_546d7df83d95d",
                        "label": "Text",
                        "name": "text",
                        "type": "wysiwyg",
                        "instructions": "",
                        "required": 0,
                        "conditional_logic": 0,
                        "wrapper": {
                            "width": "",
                            "class": "",
                            "id": ""
                        },
                        "default_value": "",
                        "toolbar": "full",
                        "media_upload": 0,
                        "tabs": "all",
                        "delay": 0
                    },
                    {
                        "key": "field_546d83640cf79",
                        "label": "Capabilities",
                        "name": "capabilities",
                        "type": "wysiwyg",
                        "instructions": "",
                        "required": 0,
                        "conditional_logic": 0,
                        "wrapper": {
                            "width": "",
                            "class": "",
                            "id": ""
                        },
                        "default_value": "",
                        "toolbar": "full",
                        "media_upload": 0,
                        "tabs": "all",
                        "delay": 0
                    }
                ]
            },
            {
                "key": "field_5b1f4444479da",
                "label": "Button Text",
                "name": "button_text",
                "type": "text",
                "instructions": "",
                "required": 0,
                "conditional_logic": 0,
                "wrapper": {
                    "width": "",
                    "class": "",
                    "id": ""
                },
                "default_value": "",
                "placeholder": "",
                "prepend": "",
                "append": "",
                "maxlength": ""
            },
            {
                "key": "field_5b1f444e479db",
                "label": "Button Url",
                "name": "button_url",
                "type": "url",
                "instructions": "",
                "required": 0,
                "conditional_logic": 0,
                "wrapper": {
                    "width": "",
                    "class": "",
                    "id": ""
                },
                "default_value": "",
                "placeholder": ""
            }
        ],
        "location": [
            [
                {
                    "param": "page_template",
                    "operator": "==",
                    "value": "template-services.php"
                }
            ]
        ],
        "menu_order": 0,
        "position": "normal",
        "style": "default",
        "label_placement": "top",
        "instruction_placement": "label",
        "hide_on_screen": "",
        "active": 1,
        "description": ""
    },
    {
        "key": "group_5b15022f8e19e",
        "title": "Design Service Detail",
        "fields": [
            {
                "key": "field_57625474d9e92",
                "label": "Detail",
                "name": "detail_list",
                "type": "repeater",
                "instructions": "",
                "required": 0,
                "conditional_logic": 0,
                "wrapper": {
                    "width": "",
                    "class": "",
                    "id": ""
                },
                "row_min": "",
                "row_limit": "",
                "layout": "row",
                "button_label": "Add Detail",
                "min": 0,
                "max": 0,
                "collapsed": "",
                "sub_fields": [
                    {
                        "key": "field_57625480d9e93",
                        "label": "Image",
                        "name": "image",
                        "type": "image",
                        "instructions": "",
                        "required": 0,
                        "conditional_logic": 0,
                        "wrapper": {
                            "width": "",
                            "class": "",
                            "id": ""
                        },
                        "preview_size": "thumbnail",
                        "library": "all",
                        "return_format": "array",
                        "min_width": 0,
                        "min_height": 0,
                        "min_size": 0,
                        "max_width": 0,
                        "max_height": 0,
                        "max_size": 0,
                        "mime_types": ""
                    },
                    {
                        "key": "field_57625486d9e94",
                        "label": "Title",
                        "name": "title",
                        "type": "text",
                        "instructions": "",
                        "required": 0,
                        "conditional_logic": 0,
                        "wrapper": {
                            "width": "",
                            "class": "",
                            "id": ""
                        },
                        "default_value": "",
                        "placeholder": "",
                        "prepend": "",
                        "append": "",
                        "formatting": "html",
                        "maxlength": ""
                    },
                    {
                        "key": "field_5762548ad9e95",
                        "label": "Content",
                        "name": "content",
                        "type": "wysiwyg",
                        "instructions": "",
                        "required": 0,
                        "conditional_logic": 0,
                        "wrapper": {
                            "width": "",
                            "class": "",
                            "id": ""
                        },
                        "default_value": "",
                        "toolbar": "full",
                        "media_upload": 1,
                        "tabs": "all",
                        "delay": 0
                    }
                ]
            }
        ],
        "location": [
            [
                {
                    "param": "page_template",
                    "operator": "==",
                    "value": "template-design-service-detail.php"
                }
            ]
        ],
        "menu_order": 0,
        "position": "normal",
        "style": "seamless",
        "label_placement": "top",
        "instruction_placement": "label",
        "hide_on_screen": [],
        "active": 1,
        "description": "",
        "old_ID": 3402
    },
    {
        "key": "group_5b1f4ea016646",
        "title": "FAQS",
        "fields": [
            {
                "key": "field_5b1f4eacc7e76",
                "label": "FAQS",
                "name": "faqs",
                "type": "repeater",
                "instructions": "",
                "required": 0,
                "conditional_logic": 0,
                "wrapper": {
                    "width": "",
                    "class": "",
                    "id": ""
                },
                "collapsed": "",
                "min": 0,
                "max": 0,
                "layout": "row",
                "button_label": "Add FAQ",
                "sub_fields": [
                    {
                        "key": "field_5b1f4ebdc7e77",
                        "label": "Question",
                        "name": "title",
                        "type": "text",
                        "instructions": "",
                        "required": 0,
                        "conditional_logic": 0,
                        "wrapper": {
                            "width": "",
                            "class": "",
                            "id": ""
                        },
                        "default_value": "",
                        "placeholder": "",
                        "prepend": "",
                        "append": "",
                        "maxlength": ""
                    },
                    {
                        "key": "field_5b1f4ec6c7e78",
                        "label": "Answer",
                        "name": "description",
                        "type": "wysiwyg",
                        "instructions": "",
                        "required": 0,
                        "conditional_logic": 0,
                        "wrapper": {
                            "width": "",
                            "class": "",
                            "id": ""
                        },
                        "default_value": "",
                        "tabs": "all",
                        "toolbar": "full",
                        "media_upload": 1,
                        "delay": 0
                    }
                ]
            }
        ],
        "location": [
            [
                {
                    "param": "page_template",
                    "operator": "==",
                    "value": "template-faqs.php"
                }
            ]
        ],
        "menu_order": 0,
        "position": "normal",
        "style": "default",
        "label_placement": "top",
        "instruction_placement": "label",
        "hide_on_screen": [
            "the_content"
        ],
        "active": 1,
        "description": ""
    },
    {
        "key": "group_5b15022f99714",
        "title": "Fee Guidelines",
        "fields": [
            {
                "key": "field_57ea2d5f6d2e8",
                "label": "Guides",
                "name": "guides",
                "type": "repeater",
                "instructions": "",
                "required": 0,
                "conditional_logic": 0,
                "wrapper": {
                    "width": "",
                    "class": "",
                    "id": ""
                },
                "row_min": "",
                "row_limit": "",
                "layout": "row",
                "button_label": "Add Guide",
                "min": 0,
                "max": 0,
                "collapsed": "",
                "sub_fields": [
                    {
                        "key": "field_57ea2d716d2e9",
                        "label": "Title",
                        "name": "title",
                        "type": "text",
                        "instructions": "",
                        "required": 0,
                        "conditional_logic": 0,
                        "wrapper": {
                            "width": "",
                            "class": "",
                            "id": ""
                        },
                        "default_value": "",
                        "placeholder": "",
                        "prepend": "",
                        "append": "",
                        "formatting": "none",
                        "maxlength": ""
                    },
                    {
                        "key": "field_57ea2d7a6d2ea",
                        "label": "Price",
                        "name": "price",
                        "type": "text",
                        "instructions": "",
                        "required": 0,
                        "conditional_logic": 0,
                        "wrapper": {
                            "width": "",
                            "class": "",
                            "id": ""
                        },
                        "default_value": "",
                        "placeholder": "",
                        "prepend": "",
                        "append": "",
                        "formatting": "none",
                        "maxlength": ""
                    },
                    {
                        "key": "field_57ea2d8e6d2eb",
                        "label": "Content",
                        "name": "content",
                        "type": "wysiwyg",
                        "instructions": "",
                        "required": 0,
                        "conditional_logic": 0,
                        "wrapper": {
                            "width": "",
                            "class": "",
                            "id": ""
                        },
                        "default_value": "",
                        "toolbar": "full",
                        "media_upload": 1,
                        "tabs": "all",
                        "delay": 0
                    }
                ]
            }
        ],
        "location": [
            [
                {
                    "param": "page_template",
                    "operator": "==",
                    "value": "template-fee-guidelines.php"
                }
            ]
        ],
        "menu_order": 0,
        "position": "normal",
        "style": "default",
        "label_placement": "top",
        "instruction_placement": "label",
        "hide_on_screen": [],
        "active": 1,
        "description": "",
        "old_ID": 3663
    }
]